{

"format": "json",
"pages": 11,
"page": 1,
"total": 202,

"tunes": [
      {
          "id": 4123,
          "name": "An Buachaill Caol Dubh",
          "url": "https://thesession.org/tunes/4123",
          "member": {
              "id": 10512,
              "name": "armandaromin",
              "url": "https://thesession.org/members/10512"
          },
          "date": "2005-01-18 22:05:59",
          "type": "waltz"
      },
      {
          "id": 20705,
          "name": "An C\u00f3ngar Chun Na T\u00e1bhairne",
          "url": "https://thesession.org/tunes/20705",
          "member": {
              "id": 37486,
              "name": "brailsford",
              "url": "https://thesession.org/members/37486"
          },
          "date": "2021-04-25 18:47:57",
          "type": "polka"
      },
      {
          "id": 21852,
          "name": "An Dara Pholca D\u00e1iligh",
          "url": "https://thesession.org/tunes/21852",
          "member": {
              "id": 37486,
              "name": "brailsford",
              "url": "https://thesession.org/members/37486"
          },
          "date": "2022-05-12 19:56:47",
          "type": "polka"
      },
      {
          "id": 2451,
          "name": "An Puncan",
          "url": "https://thesession.org/tunes/2451",
          "member": {
              "id": 3080,
              "name": "gian marco",
              "url": "https://thesession.org/members/3080"
          },
          "date": "2004-01-29 12:25:22",
          "type": "polka"
      },
      {
          "id": 3134,
          "name": "The Anascaul",
          "url": "https://thesession.org/tunes/3134",
          "member": {
              "id": 8648,
              "name": "Erik-Fiddler",
              "url": "https://thesession.org/members/8648"
          },
          "date": "2004-06-08 23:11:15",
          "type": "polka"
      },
      {
          "id": 15435,
          "name": "The Ardgroom",
          "url": "https://thesession.org/tunes/15435",
          "member": {
              "id": 63060,
              "name": "Pierre Helou",
              "url": "https://thesession.org/members/63060"
          },
          "date": "2016-06-15 19:20:19",
          "type": "polka"
      },
      {
          "id": 3631,
          "name": "Babes In The Wood",
          "url": "https://thesession.org/tunes/3631",
          "member": {
              "id": 11705,
              "name": "ceolachan",
              "url": "https://thesession.org/members/11705"
          },
          "date": "2004-10-01 13:59:42",
          "type": "polka"
      },
      {
          "id": 2593,
          "name": "Ballyoran",
          "url": "https://thesession.org/tunes/2593",
          "member": {
              "id": 8838,
              "name": "hetty",
              "url": "https://thesession.org/members/8838"
          },
          "date": "2004-03-02 00:55:00",
          "type": "polka"
      },
      {
          "id": 5119,
          "name": "The Banks Of Inverness",
          "url": "https://thesession.org/tunes/5119",
          "member": {
              "id": 3668,
              "name": "Ptarmigan",
              "url": "https://thesession.org/members/3668"
          },
          "date": "2005-10-26 01:19:38",
          "type": "polka"
      },
      {
          "id": 3640,
          "name": "The Barren Rocks Of Aden",
          "url": "https://thesession.org/tunes/3640",
          "member": {
              "id": 4075,
              "name": "Aidan Crossey",
              "url": "https://thesession.org/members/4075"
          },
          "date": "2004-10-04 05:47:33",
          "type": "march"
      },
      {
          "id": 3753,
          "name": "The Branch Line",
          "url": "https://thesession.org/tunes/3753",
          "member": {
              "id": 3080,
              "name": "gian marco",
              "url": "https://thesession.org/members/3080"
          },
          "date": "2004-10-24 01:35:10",
          "type": "polka"
      },
      {
          "id": 20387,
          "name": "The Breeches Buttoned On",
          "url": "https://thesession.org/tunes/20387",
          "member": {
              "id": 37486,
              "name": "brailsford",
              "url": "https://thesession.org/members/37486"
          },
          "date": "2021-01-30 19:47:50",
          "type": "polka"
      },
      {
          "id": 16301,
          "name": "Camino",
          "url": "https://thesession.org/tunes/16301",
          "member": {
              "id": 92626,
              "name": "Rover",
              "url": "https://thesession.org/members/92626"
          },
          "date": "2017-08-16 08:37:52",
          "type": "polka"
      },
      {
          "id": 20369,
          "name": "Ceo Mara",
          "url": "https://thesession.org/tunes/20369",
          "member": {
              "id": 37486,
              "name": "brailsford",
              "url": "https://thesession.org/members/37486"
          },
          "date": "2021-01-25 20:19:24",
          "type": "polka"
      },
      {
          "id": 4774,
          "name": "The Croppies' March",
          "url": "https://thesession.org/tunes/4774",
          "member": {
              "id": 11705,
              "name": "ceolachan",
              "url": "https://thesession.org/members/11705"
          },
          "date": "2005-07-25 12:11:22",
          "type": "polka"
      },
      {
          "id": 7531,
          "name": "Dalaigh's",
          "url": "https://thesession.org/tunes/7531",
          "member": {
              "id": 11705,
              "name": "ceolachan",
              "url": "https://thesession.org/members/11705"
          },
          "date": "2007-07-23 09:31:02",
          "type": "polka"
      },
      {
          "id": 19022,
          "name": "Dan Griffin's",
          "url": "https://thesession.org/tunes/19022",
          "member": {
              "id": 109647,
              "name": "NfldWhistler",
              "url": "https://thesession.org/members/109647"
          },
          "date": "2020-02-20 18:32:45",
          "type": "polka"
      },
      {
          "id": 20169,
          "name": "Denis O'Keeffe's",
          "url": "https://thesession.org/tunes/20169",
          "member": {
              "id": 37486,
              "name": "brailsford",
              "url": "https://thesession.org/members/37486"
          },
          "date": "2020-12-23 21:21:07",
          "type": "polka"
      },
      {
          "id": 21656,
          "name": "De\u00e1la\u00ed's",
          "url": "https://thesession.org/tunes/21656",
          "member": {
              "id": 37486,
              "name": "brailsford",
              "url": "https://thesession.org/members/37486"
          },
          "date": "2022-03-02 19:15:46",
          "type": "polka"
      },
      {
          "id": 2113,
          "name": "The Dripsey",
          "url": "https://thesession.org/tunes/2113",
          "member": {
              "id": 3080,
              "name": "gian marco",
              "url": "https://thesession.org/members/3080"
          },
          "date": "2003-11-02 12:30:41",
          "type": "polka"
      },
      {
          "id": 1426,
          "name": "D\u00e1laigh's",
          "url": "https://thesession.org/tunes/1426",
          "member": {
              "id": 3080,
              "name": "gian marco",
              "url": "https://thesession.org/members/3080"
          },
          "date": "2003-02-10 13:01:42",
          "type": "polka"
      },
      {
          "id": 12408,
          "name": "Eoin's",
          "url": "https://thesession.org/tunes/12408",
          "member": {
              "id": 85150,
              "name": "Clare",
              "url": "https://thesession.org/members/85150"
          },
          "date": "2013-01-03 13:00:56",
          "type": "polka"
      },
      {
          "id": 12407,
          "name": "Eoin's",
          "url": "https://thesession.org/tunes/12407",
          "member": {
              "id": 85150,
              "name": "Clare",
              "url": "https://thesession.org/members/85150"
          },
          "date": "2013-01-03 12:57:12",
          "type": "polka"
      },
      {
          "id": 22323,
          "name": "Frenzy",
          "url": "https://thesession.org/tunes/22323",
          "member": {
              "id": 96233,
              "name": "Lennart",
              "url": "https://thesession.org/members/96233"
          },
          "date": "2022-10-05 07:21:07",
          "type": "polka"
      },
      {
          "id": 3022,
          "name": "I Have A Bonnet Trimmed With Blue",
          "url": "https://thesession.org/tunes/3022",
          "member": {
              "id": 11147,
              "name": "jdave",
              "url": "https://thesession.org/members/11147"
          },
          "date": "2004-05-16 22:03:38",
          "type": "polka"
      },
      {
          "id": 3091,
          "name": "I Have Two Yellow Goats",
          "url": "https://thesession.org/tunes/3091",
          "member": {
              "id": 11210,
              "name": "mmthomas",
              "url": "https://thesession.org/members/11210"
          },
          "date": "2004-05-29 02:10:19",
          "type": "polka"
      },
      {
          "id": 1620,
          "name": "Jack Of All Trades",
          "url": "https://thesession.org/tunes/1620",
          "member": {
              "id": 4928,
              "name": "tufbo",
              "url": "https://thesession.org/members/4928"
          },
          "date": "2003-04-28 15:53:50",
          "type": "polka"
      },
      {
          "id": 11417,
          "name": "Jack Ryan's",
          "url": "https://thesession.org/tunes/11417",
          "member": {
              "id": 15451,
              "name": "Kilcash",
              "url": "https://thesession.org/members/15451"
          },
          "date": "2011-08-13 15:40:10",
          "type": "polka"
      },
      {
          "id": 20411,
          "name": "Jack Sweeney's",
          "url": "https://thesession.org/tunes/20411",
          "member": {
              "id": 37486,
              "name": "brailsford",
              "url": "https://thesession.org/members/37486"
          },
          "date": "2021-02-05 19:42:18",
          "type": "polka"
      },
      {
          "id": 4883,
          "name": "Jenny Lind",
          "url": "https://thesession.org/tunes/4883",
          "member": {
              "id": 3080,
              "name": "gian marco",
              "url": "https://thesession.org/members/3080"
          },
          "date": "2005-08-21 08:02:11",
          "type": "polka"
      },
      {
          "id": 11663,
          "name": "The Jenny Lind",
          "url": "https://thesession.org/tunes/11663",
          "member": {
              "id": 11705,
              "name": "ceolachan",
              "url": "https://thesession.org/members/11705"
          },
          "date": "2011-12-27 15:51:56",
          "type": "polka"
      },
      {
          "id": 11600,
          "name": "Joan Martin's",
          "url": "https://thesession.org/tunes/11600",
          "member": {
              "id": 726,
              "name": "Kenny",
              "url": "https://thesession.org/members/726"
          },
          "date": "2011-11-24 10:48:15",
          "type": "polka"
      },
      {
          "id": 4763,
          "name": "Johnny An Gabha",
          "url": "https://thesession.org/tunes/4763",
          "member": {
              "id": 11705,
              "name": "ceolachan",
              "url": "https://thesession.org/members/11705"
          },
          "date": "2005-07-22 05:01:23",
          "type": "polka"
      },
      {
          "id": 9563,
          "name": "The Kangaroo",
          "url": "https://thesession.org/tunes/9563",
          "member": {
              "id": 28023,
              "name": "protz",
              "url": "https://thesession.org/members/28023"
          },
          "date": "2009-04-24 09:02:17",
          "type": "polka"
      },
      {
          "id": 2379,
          "name": "The Kerry Cow",
          "url": "https://thesession.org/tunes/2379",
          "member": {
              "id": 2577,
              "name": "Northcregg",
              "url": "https://thesession.org/members/2577"
          },
          "date": "2004-01-11 11:01:55",
          "type": "polka"
      },
      {
          "id": 393,
          "name": "The Lakes Of Sligo",
          "url": "https://thesession.org/tunes/393",
          "member": {
              "id": 1716,
              "name": "Josh Kane",
              "url": "https://thesession.org/members/1716"
          },
          "date": "2001-11-24 00:29:51",
          "type": "polka"
      },
      {
          "id": 20639,
          "name": "Lil's Fancy",
          "url": "https://thesession.org/tunes/20639",
          "member": {
              "id": 37486,
              "name": "brailsford",
              "url": "https://thesession.org/members/37486"
          },
          "date": "2021-04-05 20:52:35",
          "type": "polka"
      },
      {
          "id": 604,
          "name": "The Little Diamond",
          "url": "https://thesession.org/tunes/604",
          "member": {
              "id": 1173,
              "name": "b.maloney",
              "url": "https://thesession.org/members/1173"
          },
          "date": "2002-03-20 16:07:02",
          "type": "polka"
      },
      {
          "id": 1650,
          "name": "Lord Seaforth",
          "url": "https://thesession.org/tunes/1650",
          "member": {
              "id": 3150,
              "name": "slainte",
              "url": "https://thesession.org/members/3150"
          },
          "date": "2003-05-10 11:29:37",
          "type": "strathspey"
      },
      {
          "id": 4021,
          "name": "The Magic Slipper",
          "url": "https://thesession.org/tunes/4021",
          "member": {
              "id": 3080,
              "name": "gian marco",
              "url": "https://thesession.org/members/3080"
          },
          "date": "2004-12-26 12:15:08",
          "type": "polka"
      },
      {
          "id": 19291,
          "name": "Matt Teehan's",
          "url": "https://thesession.org/tunes/19291",
          "member": {
              "id": 37486,
              "name": "brailsford",
              "url": "https://thesession.org/members/37486"
          },
          "date": "2020-05-25 20:14:33",
          "type": "polka"
      },
      {
          "id": 8837,
          "name": "Maurice O'Keeffe's",
          "url": "https://thesession.org/tunes/8837",
          "member": {
              "id": 13774,
              "name": "davydd",
              "url": "https://thesession.org/members/13774"
          },
          "date": "2008-08-23 06:56:43",
          "type": "polka"
      },
      {
          "id": 1833,
          "name": "Mrs. Crowley's",
          "url": "https://thesession.org/tunes/1833",
          "member": {
              "id": 4515,
              "name": "nobu",
              "url": "https://thesession.org/members/4515"
          },
          "date": "2003-07-21 04:47:20",
          "type": "polka"
      },
      {
          "id": 9873,
          "name": "The Munster Bank",
          "url": "https://thesession.org/tunes/9873",
          "member": {
              "id": 58878,
              "name": "ACJ",
              "url": "https://thesession.org/members/58878"
          },
          "date": "2009-09-07 14:40:36",
          "type": "polka"
      },
      {
          "id": 7386,
          "name": "Neili's",
          "url": "https://thesession.org/tunes/7386",
          "member": {
              "id": 13874,
              "name": "Alistair Cassidy",
              "url": "https://thesession.org/members/13874"
          },
          "date": "2007-06-21 08:40:22",
          "type": "polka"
      },
      {
          "id": 2097,
          "name": "O'Connor's",
          "url": "https://thesession.org/tunes/2097",
          "member": {
              "id": 8161,
              "name": "n_salzman@yahoo.com",
              "url": "https://thesession.org/members/8161"
          },
          "date": "2003-10-29 05:17:53",
          "type": "polka"
      },
      {
          "id": 9174,
          "name": "O'Sullivan's",
          "url": "https://thesession.org/tunes/9174",
          "member": {
              "id": 6479,
              "name": "bogman",
              "url": "https://thesession.org/members/6479"
          },
          "date": "2008-12-17 15:16:48",
          "type": "polka"
      },
      {
          "id": 7359,
          "name": "The P&O",
          "url": "https://thesession.org/tunes/7359",
          "member": {
              "id": 36362,
              "name": "mialti",
              "url": "https://thesession.org/members/36362"
          },
          "date": "2007-06-15 03:06:06",
          "type": "polka"
      },
      {
          "id": 3226,
          "name": "Paddy's",
          "url": "https://thesession.org/tunes/3226",
          "member": {
              "id": 4763,
              "name": "Dr. Dow",
              "url": "https://thesession.org/members/4763"
          },
          "date": "2004-06-29 06:35:58",
          "type": "polka"
      },
      {
          "id": 5185,
          "name": "Peata Geal Mo Mhathair",
          "url": "https://thesession.org/tunes/5185",
          "member": {
              "id": 3668,
              "name": "Ptarmigan",
              "url": "https://thesession.org/members/3668"
          },
          "date": "2005-11-12 13:10:56",
          "type": "polka"
      },
      {
            "id": 19025,
            "name": "Polca Mhary Keane",
            "url": "https://thesession.org/tunes/19025",
            "member": {
                "id": 109647,
                "name": "NfldWhistler",
                "url": "https://thesession.org/members/109647"
            },
            "date": "2020-02-20 20:25:14",
            "type": "polka"
        },
        {
            "id": 16300,
            "name": "Polka John",
            "url": "https://thesession.org/tunes/16300",
            "member": {
                "id": 92626,
                "name": "Rover",
                "url": "https://thesession.org/members/92626"
            },
            "date": "2017-08-16 07:44:33",
            "type": "polka"
        },
        {
            "id": 3853,
            "name": "Port Muiris \u00d3 D\u00e1laigh",
            "url": "https://thesession.org/tunes/3853",
            "member": {
                "id": 11705,
                "name": "ceolachan",
                "url": "https://thesession.org/members/11705"
            },
            "date": "2004-11-11 11:52:30",
            "type": "polka"
        },
        {
            "id": 6170,
            "name": "Ray's Classic",
            "url": "https://thesession.org/tunes/6170",
            "member": {
                "id": 10512,
                "name": "armandaromin",
                "url": "https://thesession.org/members/10512"
            },
            "date": "2006-09-06 23:00:53",
            "type": "polka"
        },
        {
            "id": 6645,
            "name": "The Return Of Spring",
            "url": "https://thesession.org/tunes/6645",
            "member": {
                "id": 11705,
                "name": "ceolachan",
                "url": "https://thesession.org/members/11705"
            },
            "date": "2007-01-15 17:01:17",
            "type": "barndance"
        },
        {
            "id": 1239,
            "name": "Riding On A Load Of Hay",
            "url": "https://thesession.org/tunes/1239",
            "member": {
                "id": 3932,
                "name": "fidicen",
                "url": "https://thesession.org/members/3932"
            },
            "date": "2002-12-21 13:20:03",
            "type": "polka"
        },
        {
            "id": 9524,
            "name": "The Rocky Road To Mount Collins",
            "url": "https://thesession.org/tunes/9524",
            "member": {
                "id": 6479,
                "name": "bogman",
                "url": "https://thesession.org/members/6479"
            },
            "date": "2009-04-13 09:48:59",
            "type": "polka"
        },
        {
            "id": 1123,
            "name": "The Rose Tree",
            "url": "https://thesession.org/tunes/1123",
            "member": {
                "id": 3863,
                "name": "Alastair Wilson",
                "url": "https://thesession.org/members/3863"
            },
            "date": "2002-11-08 23:51:54",
            "type": "polka"
        },
        {
            "id": 2454,
            "name": "The Roundabout",
            "url": "https://thesession.org/tunes/2454",
            "member": {
                "id": 3080,
                "name": "gian marco",
                "url": "https://thesession.org/members/3080"
            },
            "date": "2004-01-30 20:52:43",
            "type": "polka"
        },
        {
            "id": 7097,
            "name": "Sean McGovern's",
            "url": "https://thesession.org/tunes/7097",
            "member": {
                "id": 4075,
                "name": "Aidan Crossey",
                "url": "https://thesession.org/members/4075"
            },
            "date": "2007-04-23 09:24:23",
            "type": "polka"
        },
      {
        "id": 15475,
        "name": "Shaun Davey's",
        "url": "https://thesession.org/tunes/15475",
        "member": {
            "id": 85150,
            "name": "Clare",
            "url": "https://thesession.org/members/85150"
        },
        "date": "2016-07-24 12:24:55",
        "type": "polka"
    },
    {
        "id": 1640,
        "name": "The Siege Of Ennis",
        "url": "https://thesession.org/tunes/1640",
        "member": {
            "id": 1992,
            "name": "Nutty Nessie",
            "url": "https://thesession.org/members/1992"
        },
        "date": "2003-05-05 23:42:56",
        "type": "polka"
    },
    {
        "id": 7686,
        "name": "Tom Mhic's",
        "url": "https://thesession.org/tunes/7686",
        "member": {
            "id": 12756,
            "name": "spindizzy",
            "url": "https://thesession.org/members/12756"
        },
        "date": "2007-09-05 14:15:52",
        "type": "polka"
    },
    {
        "id": 8381,
        "name": "Tom Mhic's",
        "url": "https://thesession.org/tunes/8381",
        "member": {
            "id": 11705,
            "name": "ceolachan",
            "url": "https://thesession.org/members/11705"
        },
        "date": "2008-03-26 06:16:25",
        "type": "polka"
    },
    {
        "id": 4158,
        "name": "Tripping To The Well",
        "url": "https://thesession.org/tunes/4158",
        "member": {
            "id": 11705,
            "name": "ceolachan",
            "url": "https://thesession.org/members/11705"
        },
        "date": "2005-01-27 05:31:13",
        "type": "polka"
    },
    {
        "id": 3887,
        "name": "We Won't Go Home Till Morning",
        "url": "https://thesession.org/tunes/3887",
        "member": {
            "id": 5466,
            "name": "Muireann",
            "url": "https://thesession.org/members/5466"
        },
        "date": "2004-11-17 17:46:13",
        "type": "polka"
    }
  ]
}